{
  "CLINIC_ID": "322456777777777777",
  
  "WAKEUP_INTERVAL": "30",
  
	"PRIIMO_HOST_ADDRESS": "http://localhost:3000",

	"PRIIMO_HOST_TOKEN":"ETTDGWErfadf234523542DFDFDS",

	"SHARED_DIR_LOCATIONS": "shared_dir",

	"PROVIDER_NAME": "ff",

	"TRASH_DIR": "trash",

	"RETRY_PERIOD": "ff",

  "STARTING_DATE": "ff",
  
  "CLEAR_SHARED_DIR": "ff",
  
  "FILES_MASK": "xxxxxx_<patient id>_<test name>.oru",
  
	"LOG_FILE_RETENTION_PERIOD": "30"
}
